…
Cortisol and perfectionism

To understand and apply multilevel models, let’s model some data on perfectionism and cortisol I have collected for an on-going study using SPSS.

The variables

The study is investigating whether athletes experience a change in their cortisol awakening response (CAR) the morning of a competition (the CAR is essentially a measure of stress), and whether perfectionism (a multidimensional personality trait) can predict these changes. In other words, the study is trying to see if levels of perfectionism in athletes can predict how stressed they get before a competition (of course, it is a little more complicated than that). One might expect that an athlete higher in perfectionism would get more stressed before a competition.

To assess whether athletes are experiencing a change in CAR before a competition, the CAR is measured on a baseline day and the day of a competition (i.e., at multiple time points). The CAR is expressed in two different metrics: AUCi and AUCg. The details of these metrics are not important at this stage, but take note they both provide an index of stress. Perfectionism is measured at one time point before any measures of the CAR take place. As each participant must provide CAR measurements on two separate occasions (a baseline day and a competition day), the CAR measurements are nested within participants. Therefore, multilevel models must be used to model this data.

The data

The data we will use to create our models can be seen below:

## # A tibble: 40 x 9
##       ID   SOP   SPP  SOPP  SPPP AUCg_Base AUCg_Comp AUCi_Base AUCi_Comp
##    <dbl> <dbl> <dbl> <dbl> <dbl>     <dbl>     <dbl>     <dbl>     <dbl>
##  1     1   2.8   2.2  3.75  1.75     25.7       22.3    17.0      -0.758
##  2     2   5.6   4.4  6     4.25     17.3       35.4     5.12     -2.05 
##  3     3   5     3    4.5   2         3.93      12.6     1.95      1.17 
##  4     4   2.8   3.8  6.25  5.25     18.2       13.6    -0.244    -9.89 
##  5     5   6.6   2.2  6.75  2.5      22.3       25.7    -1.04      2.84 
##  6     6   5.8   4.6  5.5   2.5       8.59      22.0     0.804    -7.33 
##  7     7   3.6   2.8  4.25  2.75     23.1       16.7     3.11      5.55 
##  8     8   4     5    5     5.25     21.4       27.8     4.34      7.44 
##  9     9   4.8   3.8  5.5   4.25      6.95      23.1     0.357     4.64 
## 10    10   4.8   3.2  5.25  4        15.0       27.1     2.16     14.6  
## # ... with 30 more rows
…
